{
    "key": "group_5fd7d61f91121",
    "title": "BLOK - Laatste evenementen",
    "fields": [
        {
            "key": "field_5fd7d61f98b84",
            "label": "Laatste evenementen",
            "name": "",
            "type": "accordion",
            "instructions": "",
            "required": 0,
            "conditional_logic": 0,
            "wrapper": {
                "width": "",
                "class": "",
                "id": ""
            },
            "open": 0,
            "multi_expand": 0,
            "endpoint": 0
        },
        {
            "key": "field_5fd7d61f98b90",
            "label": "Aantal",
            "name": "count",
            "type": "number",
            "instructions": "Aantal evenementen weer te geven in het overzicht",
            "required": 0,
            "conditional_logic": 0,
            "wrapper": {
                "width": "25",
                "class": "",
                "id": ""
            },
            "default_value": 5,
            "placeholder": "",
            "prepend": "",
            "append": "",
            "min": 3,
            "max": 10,
            "step": ""
        },
        {
            "key": "field_6002e55ba8d14",
            "label": "In categorie",
            "name": "filter_category",
            "type": "taxonomy",
            "instructions": "",
            "required": 0,
            "conditional_logic": 0,
            "wrapper": {
                "width": "",
                "class": "",
                "id": ""
            },
            "taxonomy": "event-category",
            "field_type": "multi_select",
            "allow_null": 0,
            "add_term": 0,
            "save_terms": 0,
            "load_terms": 0,
            "return_format": "id",
            "multiple": 0
        },
        {
            "key": "field_6005e63907c83",
            "label": "Type evenement",
            "name": "filter_tags",
            "type": "taxonomy",
            "instructions": "",
            "required": 0,
            "conditional_logic": 0,
            "wrapper": {
                "width": "",
                "class": "",
                "id": ""
            },
            "taxonomy": "event-tag",
            "field_type": "multi_select",
            "allow_null": 0,
            "add_term": 0,
            "save_terms": 0,
            "load_terms": 0,
            "return_format": "id",
            "multiple": 0
        },
        {
            "key": "field_601fc5745ad5c",
            "label": "Type evenementen niet tonen",
            "name": "filter_tags_not",
            "type": "taxonomy",
            "instructions": "Gebruik dit veld om bijvoorbeeld repetities en verhuren te verstoppen.",
            "required": 0,
            "conditional_logic": 0,
            "wrapper": {
                "width": "",
                "class": "",
                "id": ""
            },
            "taxonomy": "event-tag",
            "field_type": "multi_select",
            "allow_null": 0,
            "add_term": 0,
            "save_terms": 0,
            "load_terms": 0,
            "return_format": "id",
            "multiple": 0
        }
    ],
    "location": [
        [
            {
                "param": "block",
                "operator": "==",
                "value": "acf\/latest-events"
            }
        ]
    ],
    "menu_order": 0,
    "position": "normal",
    "style": "default",
    "label_placement": "top",
    "instruction_placement": "label",
    "hide_on_screen": "",
    "active": true,
    "description": "",
    "modified": 1612694937
}